{
    "photos": {
        "page": 2,
        "pages": 11472,
        "perpage": 8,
        "total": 91772,
        "photo": [
            {
                "id": "53555844351",
                "owner": "200030980@N06",
                "secret": "a800811e24",
                "server": "65535",
                "farm": 66,
                "title": "Thirsty",
                "ispublic": 1,
                "isfriend": 0,
                "isfamily": 0
            },
            {
                "id": "53554984017",
                "owner": "62209525@N06",
                "secret": "9b2f26f550",
                "server": "65535",
                "farm": 66,
                "title": "Sundaic Leopard Cat",
                "ispublic": 1,
                "isfriend": 0,
                "isfamily": 0
            },
            {
                "id": "53555832161",
                "owner": "62209525@N06",
                "secret": "f4dc595601",
                "server": "65535",
                "farm": 66,
                "title": "Sundaic Leopard Cat",
                "ispublic": 1,
                "isfriend": 0,
                "isfamily": 0
            },
            {
                "id": "53555831716",
                "owner": "62209525@N06",
                "secret": "fb6f3efafc",
                "server": "65535",
                "farm": 66,
                "title": "Sundaic Leopard Cat",
                "ispublic": 1,
                "isfriend": 0,
                "isfamily": 0
            },
            {
                "id": "53556276370",
                "owner": "126171102@N08",
                "secret": "a1f680b4f4",
                "server": "65535",
                "farm": 66,
                "title": "Nubyia [Just another Tuesday]",
                "ispublic": 1,
                "isfriend": 0,
                "isfamily": 0
            },
            {
                "id": "53554978912",
                "owner": "152885657@N03",
                "secret": "216dee1756",
                "server": "65535",
                "farm": 66,
                "title": "cat",
                "ispublic": 1,
                "isfriend": 0,
                "isfamily": 0
            },
            {
                "id": "53555789031",
                "owner": "197116423@N05",
                "secret": "5a49b9657e",
                "server": "65535",
                "farm": 66,
                "title": "How to euthanize a cat with over the counter drugs?",
                "ispublic": 1,
                "isfriend": 0,
                "isfamily": 0
            },
            {
                "id": "53555671646",
                "owner": "45148911@N06",
                "secret": "bec35c4a5c",
                "server": "65535",
                "farm": 66,
                "title": "XH2_DSCF7983_C1",
                "ispublic": 1,
                "isfriend": 0,
                "isfamily": 0
            }
        ]
    },
    "stat": "ok"
}
