{
    "photos": {
        "page": 1,
        "pages": 11234,
        "perpage": 8,
        "total": 89865,
        "photo": [
            {
                "id": "53547677568",
                "owner": "66682533@N07",
                "secret": "53f48654aa",
                "server": "65535",
                "farm": 66,
                "title": "The Jack Of Diamonds",
                "ispublic": 1,
                "isfriend": 0,
                "isfamily": 0
            },
            {
                "id": "53546588052",
                "owner": "57862012@N06",
                "secret": "5f00a32674",
                "server": "65535",
                "farm": 66,
                "title": "On the train",
                "ispublic": 1,
                "isfriend": 0,
                "isfamily": 0
            },
            {
                "id": "53547813380",
                "owner": "85476594@N03",
                "secret": "057bc563ce",
                "server": "65535",
                "farm": 66,
                "title": "Holiday babies - LNY 2024 edition",
                "ispublic": 1,
                "isfriend": 0,
                "isfamily": 0
            },
            {
                "id": "53547813365",
                "owner": "85476594@N03",
                "secret": "04ac0d9ab6",
                "server": "65535",
                "farm": 66,
                "title": "Holiday babies - LNY 2024 edition",
                "ispublic": 1,
                "isfriend": 0,
                "isfamily": 0
            },
            {
                "id": "53547374856",
                "owner": "85476594@N03",
                "secret": "561b7fcdcf",
                "server": "65535",
                "farm": 66,
                "title": "Holiday babies - LNY 2024 edition",
                "ispublic": 1,
                "isfriend": 0,
                "isfamily": 0
            },
            {
                "id": "53547556803",
                "owner": "199624659@N04",
                "secret": "efd4f7d8a8",
                "server": "65535",
                "farm": 66,
                "title": "Concierge",
                "ispublic": 1,
                "isfriend": 0,
                "isfamily": 0
            },
            {
                "id": "53547514568",
                "owner": "125557359@N04",
                "secret": "1544b6a0c5",
                "server": "65535",
                "farm": 66,
                "title": "' Cyber grid '",
                "ispublic": 1,
                "isfriend": 0,
                "isfamily": 0
            },
            {
                "id": "53546401307",
                "owner": "185946746@N02",
                "secret": "1412e7ef0d",
                "server": "65535",
                "farm": 66,
                "title": "chat joueur",
                "ispublic": 1,
                "isfriend": 0,
                "isfamily": 0
            }
        ]
    },
    "stat": "ok"
}
